{
    "name": "Organizacao",
    "fields": [
        {
            "fieldName": "sigla",
            "fieldType": "String",
            "fieldValidateRules": [
                "required",
                "minlength",
                "maxlength",
                "unique"
            ],
            "fieldValidateRulesMinlength": 1,
            "fieldValidateRulesMaxlength": 31
        },
        {
            "fieldName": "nome",
            "fieldType": "String"
        },
        {
            "fieldName": "ativo",
            "fieldType": "Boolean",
            "fieldValidateRules": [
                "required"
            ]
        }
    ],
    "relationships": [
        {
            "relationshipType": "many-to-one",
            "otherEntityName": "organizacao",
            "otherEntityRelationshipName": "subordinadas",
            "relationshipName": "superior",
            "otherEntityField": "sigla"
        },
        {
            "relationshipType": "one-to-many",
            "otherEntityName": "usuario",
            "otherEntityRelationshipName": "organizacao",
            "relationshipName": "usuarios"
        },
        {
            "relationshipType": "one-to-many",
            "otherEntityName": "organizacao",
            "otherEntityRelationshipName": "superior",
            "relationshipName": "subordinadas"
        }
    ],
    "changelogDate": "20190428212820",
    "entityTableName": "organizacao",
    "dto": "no",
    "pagination": "pagination",
    "service": "serviceImpl",
    "jpaMetamodelFiltering": true,
    "fluentMethods": true,
    "clientRootFolder": "",
    "applications": "*",
    "searchEngine": "elasticsearch"
}